^D:\VISUALSTUDIOPROJECTS\LEARNING\SECTION_02\BULLCOWGAME\FBULLCOWGAME.CPP|D:\VISUALSTUDIOPROJECTS\LEARNING\SECTION_02\BULLCOWGAME\MAIN.CPP
D:\VISUALSTUDIOPROJECTS\LEARNING\SECTION_02\BULLCOWGAME\DEBUG\VC141.PDB
D:\VISUALSTUDIOPROJECTS\LEARNING\SECTION_02\BULLCOWGAME\DEBUG\VC141.IDB
D:\VISUALSTUDIOPROJECTS\LEARNING\SECTION_02\BULLCOWGAME\DEBUG\MAIN.OBJ
D:\VISUALSTUDIOPROJECTS\LEARNING\SECTION_02\BULLCOWGAME\DEBUG\FBULLCOWGAME.OBJ
^D:\VISUALSTUDIOPROJECTS\LEARNING\SECTION_02\BULLCOWGAME\MAIN.CPP
D:\VISUALSTUDIOPROJECTS\LEARNING\SECTION_02\BULLCOWGAME\DEBUG\VC141.PDB
